{
	"Completed": "완료되었습니다",
	"Favorites": "즐겨찾기",
	"Featured Photos": "추천 사진",
	"Download": "다운로드",
	"Download Completed": "다운로드가 완료되었습니다",
	"Downloaded Photos": "다운로드 사진",
	"Downloading": "다운로드 중...",
	"Loading": "로딩 중...",
	"Selection": "선택",
	"Regist": "등록",
	"Regist Completed": "즐겨찾기에 등록되었습니다",
	"Remove": "삭제",
	"Remove Completed": "삭제가 완료되었습니다"
}